{
  "navigation": {
    "orders": "平台订单",
    "products": "平台产品",
    "users": "网站用户",
    "merchants": "品牌",
    "artworks": "艺术设计",
    "myGalleries": "我的画廊",
    "myArtworks": "我的艺术设计",
    "brands": "品牌",
    "coupons": "优惠券",
    "cms": "CMS",
    "cms.collections": "产品系列",
    "cms.navigation": "导航列表",
    "cms.userReviews": "用户评价",
    "settings": "设置",
    "settings.shipments": "发货信息",
    "settings.account": "账户信息",
    "settings.language": "系统语言"
  },

  "header": {
    "button.logOut": "退出登录"
  },

  "pagination": {
    "next": "下一页",
    "button": "切换显示页码",
    "previous": "上一页",
    "modal": {
      "heading": "切换显示页码",
      "msg": "请选择每页显示的数量",
      "word": "个/页",
      "default": "保存为默认值",
      "set": "未设置"
    },
    "info": {
      "label": "显示",
      "label2": "显示{{start}} 到 {{end}} of {{total}}",
      "label3": "显示 {{current}} 到 {{total}} t"
    }
  },

  "table": {
    "head": {
      "product": "产品",
      "attachment": "附件",
      "user": "用户",
      "review": "查看",
      "rating": "评分",
      "amount" : "金额",
      "date" : "日期",
      "customer" : "顾客",
      "phone" : "电话号码",
      "orders" : "订单",
      "brand" : "品牌",
      "qty" : "数量",
      "status" : "状态",
      "name" : "姓名",
      "size": "尺码",
      "sku" : "库存",
      "price" : "价格",
      "orderSheet" : "订单表",
      "register": "注册日期",
      "username": "用户名",
      "contact": "其他联系信息",
      "trademark": "商标",
      "merchantID": "厂家ID",
      "commodity": "Commodity",
      "sales": "促销",
      "type": "导航类型",
      "link": "导航链接",
      "collectionName": "系列名称",
      "collectionLink": "系列链接",
      "productNumber": "产品数量"
    },
    "bulk": {
      "label": "批量操作",
      "selectAll": "选择所有",
      "selectedLabel": "{{count}}个项目已选中",
      "change_status": "改变当前状态"
    }
  },

  "buttons": {
    "save": "保存",
    "reset": "重设",
    "close": "关闭",
    "saveAll": "保存所有",
    "add": "增加",
    "delete": "删除",
    "create": "创建",
    "copy": "复制",
    "cancel": "取消",
    "done": "完成",
    "discard": "放弃",
    "next": "下一步",
    "edit": "编辑",
    "back": "返回",
    "upload": "上传",
    "uploadZip": "上传压缩包",
    "uploadFiles": "上传文件",
    "createComponents": "创建",
    "resize": "生成图像",
    "remove": "移除",
    "download": "下载",
    "prev": "预览",
    "addCollection": "确认添加",
    "saveLink": "保存链接",
    "uploadBannerImage": "上传条幅图片"
  },

  "modals": {
    "duplicate": {
      "heading": "复制这个产品",
      "msg1": "请输入这个产品的ID",
      "msg3": "请输入另外一个ID",
      "msg2": "ID的格式请参考 EVEE33M1501B",
      "msg4": "完成！您已成功创建产品的ID",
      "duplicateAsset": "复制3D文件包"
    },
    "galleries": {
      "heading": "创建新的画廊",
      "msg": "将现有的艺术设计添加到画廊"
    },
    "tracking": {
      "heading" : "运单详情",
      "description1" : "请为所选的订单输入快递单号和运单详情",
      "sendDesign": "待派送的设计",
      "company": "快递公司",
      "trackingID": "快递单号",
      "estimated": "预估派送天数",
      "cost": "费用",
      "designsShip": "设计运送",
      "choose": "请选择在此运单中要派送的设计",
      "design": "设计",
      "send": "派送"
    },
    "tags": {
      "heading": "给画廊增加标签",
      "button": "增加标签 + "
    },
    "status": {
      "heading" : "更改状态"
    },
    "product": {
      "label1": "相关产品",
      "head": "所有产品",
      "label2": "选择此列表中的产品",
      "add": "增加至列表",
      "remove": "从列表中删除",
      "listing": "列表",
      "selected": "{{selectedProductsCount}} 产品从 {{total}}"
    },
    "brand": {
      "heading": "增加新品牌",
      "description": "请填写以下新品牌信息",
      "email": "管理员邮箱",
      "pass": "密码",
      "url": "品牌URL"
    },
    "subCollection": {
      "label": "创建新的子系列",
      "msg": "恭喜！您已成功创建新的系列",
      "error": "抱歉！此系列名已经被使用。",
      "label2": "请给此系列命名",
      "label3": "请尝试使用其他名称",
      "success": "新系列的名称"
    },
    "shipping": {
      "heading": "修改快递服务",
      "label": "给消费者创建新的快递选项",
      "add": "继续增加"
    }
  },

  "constants": {
    "status": {
      "status": "状态",
      "paid": "已付款",
      "pending": "未完成",
      "received": "已收到",
      "sent": "已发出",
      "in_production": "生产中",
      "payment_error": "付款错误",
      "finalized": "已完成",
      "active": "激活",
      "in_active": "未激活",
      "archived": "已归档",
      "deleted": "已删除",
      "rejected": "已拒绝",
      "approved": "已通过",
      "available": "上线中",
      "offline": "已下线"
    }
  },

  "filters": {
    "paymentErrors": "结果列表中显示支付错误",
    "archived": "在结果列表中显示已归档的产品",
    "search.button.go": "查询",
    "search.placeholder": "搜索",
    "status.label": "状态",
    "brand.label": "品牌",
    "date.label": "至"
  },

  "errors": {
    "noOrders": "无法显示任何订单",
    "noProducts": "暂无相关产品",
    "noUsers": "无法显示任何用户",
    "noShipping": "没有快递选项",
    "noSections": "没有任何选择",
    "noTags": "暂无任何标签，可以添加",
    "noMerchants": "未能显示任何厂家",
    "noPreview": "无可用预览",
    "noArtworks": "没有可显示的艺术品",
    "noGalleries": "没有画廊",
    "errorLoadingBrand": "载入品牌时发生错误"
  },
  "info": {
    "loadingBrands": "正在载入品牌",
    "category": "选择类别",
    "subCategory": "请先选择一个类别"
  },

  "words": {
    "from": "从",
    "keywords": "关键词",
    "information": "信息",
    "merchant": "厂家",
    "drop": "请拖入这里",
    "customer": "用户",
    "category": "类别",
    "galleries": "画廊",
    "gallery": "画廊",
    "imgAlt": "更改图片",
    "artworks": "艺术设计",
    "tags": "标签",
    "to": "到",
    "subCategory": "子类别",
    "reviews": "预览",
    "avgRating": "评级",
    "view": "查看",
    "opacity": "透明度",
    "overlay": "覆盖",
    "multiply": "多选",
    "fill": "填写",
    "alert": "警告",
    "brandList": "品牌列表",
    "none": "无",
    "type": "类型",
    "default": "默认设置",
    "condition": "条件",
    "name": "名称",
    "description": "描述",
    "angle": "角度",
    "title": "标题",
    "price": "价格",
    "techNumber": "技术号",
    "add": "增加",
    "on": "开",
    "off": "关",
    "image": "图像",
    "text": "文字",
    "character": "拼音",
    "language": "语言",
    "then": "然后",
    "other": "其他",
    "if": "假如",
    "sort": "分类",
    "is": "是",
    "thumbnail": "图标",
    "logo": "标识",
    "custom": "用户",
    "color": "颜色",
    "today": "今天",
    "lastWeek": "上周",
    "month": "月份",
    "lastMonth": "上一个月",
    "yes": "是",
    "no": "否",
    "visible": "可见"
  },

  "uploader": {
    "preview": "预览",
    "dragMsg": "请把图像拖入这里",
    "recSizeMsg": "推荐图像尺寸{{width}}px by {{height}}",
    "recFormats": "推荐的格式",
    "uploadingMsg": "您的图形正在上传，需要一定的时间。"
  },

  "loginPage": {
    "button.submit": "登录",
    "heading.welcome": "欢迎",
    "form": {
      "invalidEmail": "邮箱无效",
      "placeholder": {
        "email": "邮箱",
        "password": "密码"
      }
    },
    "select": "请选择语言",
    "english": "英语",
    "chinese": "中文"
  },

  "ordersListPage": {
    "heading.title": "订单页面",
    "breadcrumbs.text": "订单",
    "list.heading": "订单列表"
  },

  "ordersDetailsPage": {
    "heading.title": "订单信息",
    "orderID": "订单ID",
    "designNumber": "设计号码",
    "notes": {
      "title": "客户备注",
      "noNotes": "没有备注",
      "addNotes": "增加备注",
      "placeholder": "给这个订单增加备注"
    },
    "subtotal": "小计",
    "couponUsed": "使用的优惠券",
    "shipping": "邮费",
    "international": "任何其他",
    "total": "总计",
    "paymentMethod": "付款方式",
    "status": {
      "label": "状态",
      "details": "这个订单没有其他信息",
      "tracking": "跟踪码："
    },
    "customer": {
      "shippingAddress": "快递地址",
      "name": "名字",
      "mobile": "手机号码",
      "phone": "电话号码",
      "email": "邮箱地址",
      "zip": "邮编",
      "address": "地址",
      "region": "地区",
      "city": "城市",
      "province": "省份"
    },
    "productionDetails": {
      "label": "生产信息",
      "detailsBtn": "显示细节",
      "detailsBtnClose": "关闭细节",
      "productInformation": "生产信息",
      "customisationInformation": "个性定制产品信息",
      "product": {
        "name": "产品名称",
        "sku": "库存",
        "design": "设计链接",
        "quantity": "数量",
        "size": "尺寸"
      }
    }
  },

  "productsListPage": {
    "heading": "产品",
    "breadcrumbs": "产品",
    "editBtn": "编辑",
    "newProductBtn": "增加新产品"
  },

  "productsCreatePage": {
    "heading": "产品",
    "breadcrumbs": "创建产品",
    "widgetHead": "新产品",
    "cacheMsg": "删除缓存图片",
    "personalize": {
      "heading": "个性设置",
      "subheading": "创建画布",
      "languages": {
        "heading": "选择可用语言"
      },
      "fonts": {
        "heading": "文字字体",
        "button": "+上传字体"
      },
      "color": {
        "heading": "颜色选项",
        "option1": "任意颜色挑选",
        "option2": "固定颜色/纹理 选项",
        "make": "设置默认",
        "default": "默认",
        "add": "增加颜色",
        "upload": "上传"
      },
      "galleries": {
        "heading": "设立画廊"
      },
      "canvas": {
        "canvas": "画布",
        "label": "画布图层",
        "background": "背景",
        "mask": "面具",
        "setup": "设立场景"
      },
      "sceneOptions": {
        "label": "场景选项",
        "general": {
          "label": "常用选项",
          "label2": "转换和场景选项",
          "label3": "文字和绘画选项",
          "label4": "效果选项",

          "addElement": "增加元素",
          "erase": "去除元素",
          "upload": "上传图片",
          "max_file_size": "文件最大尺寸",
          "min_dpi": "最小DPI",
          "min_height": "最小高度",
          "min_width": "最小宽度",
          "max_width": "最大宽度",
          "max_height": "最大高度",
          "choose": "选择图片",
          "galleries": "设置画廊",
          "take": "选取图片",
          "create": "创建文字",
          "drawing": "自由绘画",
          "reset": "设计",
          "undo": "撤销",
          "redo": "重做",

          "move": "移除",
          "rotate": "旋转",
          "transform": "转换",
          "default": "默认值",
          "options": "可用选项",
          "width": "宽度",
          "freeTransform": "自由转换",
          "fixedTransform": "固定转换",
          "crop": "Crop",
          "flipH": "上下翻转",
          "flipV": "左右翻转",
          "layerUp": "图层向上",
          "layerDown": "图层向下",
          "brightness": "亮度",
          "transparency": "透明度",
          "stroke": "描边",
          "color": "颜色",
          "setColor": "选择颜色",
          "shadows": "阴影",
          "opacity": "不透明度",
          "blur": "模糊",

          "limit": "字数限制",
          "count": "从 {{min}} 到 {{max}} 字数",
          "languages": "语言",
          "noLanguages": "还未选择语言",
          "textAlignment": "文字对齐",
          "left": "左对齐",
          "right": "右对齐",
          "center": "居中对齐",
          "textColor": "文字颜色",
          "textFonts": "文字字体",
          "noFonts": "还未设置字体",
          "textWeight": "文字磅数",
          "italic": "斜体",
          "bold": "粗体",
          "normal": "常规",
          "textDecoration": "文字装饰",
          "strikethrough": "删除线",
          "underline": "下划线",
          "none": "无",
          "brushType": "笔刷类型",
          "setFonts": "设置字体",
          "defaultStyle": "默认款式",
          "setup": "设置",
          "texture": "纹理",
          "square": "方框",
          "circle": "圆圈",
          "spray": "喷涂",
          "pencil": "铅笔",
          "brushSize": "画笔尺寸",
          "brushColor": "画笔颜色",
          "grayscale": "灰度",
          "sepia": "深褐色",
          "sharpen": "锐化",
          "emboss": "浮雕",
          "noise": "杂色",
          "pixelate": "像素化",
          "blend": "调色",
          "blendType": "调配类型",
          "darken": "加暗",
          "lighten": "加亮",
          "screen": "滤色",
          "tint": "着色",
          "multiply": "镶嵌",
          "diff": "区分",
          "substract": "去除",
          "add": "增加"
        }
      }
    },
    "basicInformation": {
      "heading": "基本信息",
      "subheading": "产品基本信息",
      "date": "创建日期",
      "visibility": {
        "head": "更改状态",
        "heading": "状态和显示性",
        "option1": "移动端",
        "option2": "MIID iOS应用",
        "option3": "电脑网页",
        "option4": "MIID安卓应用",
        "option5": "VR"
      },
      "organisation": {
        "heading": "架构",
        "category": "类别",
        "subCategory": "子类别 (最多4个)"
      },
      "clientProductInformation": {
        "label": "客户产品信息",
        "name": {
          "placeholder": "白产品名称在此",
          "title": "产品名称"
        },
        "sku": "产品库存",
        "time": "生产周期",
        "days": "天数",
        "cost": "* 产品成本",
        "price": "* 初始价 ",
        "manufacturer": "厂家",
        "weight": "重量",
        "notes": "生产备注",
        "description": "描述",
        "promotion": {
          "label": "促销",
          "start": "将此产品促销",
          "expiry": "截止日期",
          "promotionBanner": "激活此产品促销banner"
        },
        "meta": {
          "label": "元数据",
          "title": "元数据标题",
          "description": "元数据描述",
          "keywords": "元数据关键词"
        }
      },
      "productInformation": {
        "label": "MIID产品信息 ",
        "product": "MIID产品"
      }
    },
    "productMedia": {
      "heading": "产品平面资料",
      "library": "产品平面资料库",
      "prThumb": "产品略图",
      "prWeb": "电脑端网页版详情页",
      "prMob": "手机端网页详情页",
      "prBannerWeb": "产品Banner电脑端页面版",
      "prBannerMob": "产品Banner手机端页面版",
      "promotionBannerWeb": "促销Banner电脑网页版",
      "promotionBannerMob": "促销Banner移动网页",
      "prSizeRef": "产品尺寸信息"
    },
    "customisationDescription": {
      "heading": "用户定制描述",
      "label": "产品定制",
      "multiselection": "允许多选",
      "labels": {
        "editMaterial": "编辑材料",
        "deleteMaterial": "删除材料",
        "addMaterial": "增加财力",
        "addShape": "增加形状",
        "shapeGroup": "增加形状组",
        "personalizeGroup": "增加个性化组",
        "customInputGroup": "增加文字输入组",
        "customSelectable": "增加消费者可选组",
        "customImages": "增加消费者图片选项组",
        "materialGroup": "增加材料组",
        "addText": "增加文字输入选项",
        "addSelectable": "增加可选选项",
        "addCustom": "增加用户图片选项",
        "addPersonalize": "增加个性定制",
        "editGroup": "编辑组",
        "deleteGroup": "删除组",
        "deleteStep": "删除步骤",
        "editStep": "编辑步骤"
      },
      "words": {
        "name": "名称",
        "tech": "技术号＃",
        "angle": "展示角度",
        "text": "文字",
        "color": "颜色",
        "image": "图片",
        "description": "描述",
        "price": "价格",
        "setup": "新建",
        "prodCost": "产品成本",
        "prodPrice": "产品价格",
        "value": "Value Title",
        "ipCost": "IP成本"
      },
      "buttons": {
        "add": "增加定制步骤",
        "condition": "增加条件",
        "visible": "可见",
        "enable": "可选",
        "selected": "已选择"
      },
      "fonts": "可用字体",
      "noFonts": "无字体",
      "value": "title值",
      "more": "增加更多",
      "default": "默认文字"
    },
    "visualAssets": {
      "heading": "文件包",
      "vaUpload": {
        "heading": "产品文件包",
        "preview": "文件包预览",
        "uploadFiles": "上传文件",
        "uploadFolders": "上传ZIP文件夹",
        "deleting": "删除文件",
        "uploading": "上传中",
        "step1": "步骤1/3：上传文件",
        "step2": "步骤2/3：正在将信息存入数据库",
        "step3": "步骤3/3：正在生成子文件 "
      },
      "vaLayering": {
        "heading": "文件包图层",
        "label": "图层",
        "defaultBtn": "设为默认顺序",
        "setDefaultBtn": "设为默认顺序",
        "applyThis": "应用于此",
        "applyAll": "应用于所有",
        "preview": "产品预览"
      },
      "vaTuning": {
        "heading": "文件包调色",
        "label": "文件调色",
        "msg": "为这个混色展示唯一的材质",
        "buttons": {
          "copy": "复制",
          "paste": "粘贴",
          "create": "创建材质",
          "delete": "删除材质",
          "duplicate": "重复材质"
        }
      },
      "vaLinkage": {
        "heading": "文件链接",
        "scene": {
          "label": "场景",
          "description": "这是3D场景。这里的链接没有直接和文件包和前台菜单链接。你可以根据需要进行链接。",
          "heading": "3D场景文件链接"
        }
      }
    }
  },
  "usersListPage": {
    "heading": "用户",
    "breadcrumbs": "用户",
    "metrics": {
      "signedUp": "已注册用户",
      "totalSignedUp": "总注册用户",
      "total": "总注册"
    }
  },

  "brandsListPage": {
    "heading": "品牌",
    "button": {
      "add": "增加新品牌",
      "delete": "删除品牌"
    }
  },

  "brandsDetailsPage": {
    "heading": "品牌详细信息",
    "settings": "账户设置",
    "logo": "品牌LOGO",
    "version1": "LOGO版本1",
    "service": "客服",
    "name": "客服人员名字",
    "phone": "客服电话",
    "email": "客服邮箱",
    "wechat": "客服微信",
    "qq": "客服QQ"
  },
  "couponsListPage": {
    "heading": "优惠券",
    "add": "增加新的优惠券",
    "head": {
      "details": "详细信息",
      "used": "已使用",
      "limit": "使用量限制",
      "start": "开始时间",
      "end": "结束时间",
      "discount": "折扣",
      "creator": "优惠券创建人"
    },
    "productOver": "按产品",
    "items": "按项目",
    "itemsOf": "按所有项目",
    "orderOver": "按订单"
  },
  "couponsCreatePage": {
    "heading": "创建",
    "use": "{{total}} 只使用",
    "labels": {
      "new": "新的优惠券",
      "code": "优惠码",
      "conditions": "使用条件",
      "expiry": "失效日期",
      "limits": "使用量设置",
      "brands": "所选品牌",
      "product": "所选产品"
    },
    "type": "折扣类型",
    "value": "折扣值",
    "application": "应用类型",
    "code": "优惠码",
    "generate": "生成优惠码",
    "error": "此优惠码已经被使用，请生成其他优惠码",
    "start": "开始日期",
    "end": "结束日期",
    "fake": "虚假限制数量",
    "quantity": "可用数量",
    "unlimited": "无限使用",
    "limited": "限制使用数量",
    "per": "每个顾客最多使用",
    "expires": "失效日期",
    "noExpiry": "无期限"
  },
  "collectionsListPage": {
    "heading": "系列",
    "label": "系列列表",
    "all": "所有系列",
    "add": "创建新的系列",
    "miid_sites": "MIID网站",
    "brands": "品牌",
    "msg": "系列可以用将您的产品统一起来，例如：T恤系列，2016秋季新品等."
  },
  "collectionsCreatePage": {
    "banner": "产品系列Banner",
    "mobile": "移动客户端版本",
    "web": "网页版本",
    "seo": {
      "label": "SEO",
      "msg":"搜索引擎预览",
      "title": "飞往新加坡 - QatarAirways.com",
      "description": "预定前往新加坡的航班，探索群球最佳航线。",
      "fields": {
        "title": {
          "label": "页面标题",
          "placeholder": "标题示范"
        },
        "description": {
          "label": "元元素描述",
          "placeholder": "样品描述"
        },
        "keywords": {
          "label": "关键词",
          "placeholder": "请输入关键词并按enter键"
        },
        "url": "URL和handle"
      }
    },
    "status": "改变状态",
    "title": "选项标题",
    "add": "所有产品"
  },
  "navigationListPage": {
    "add": "新建导航",
    "heading": "导航栏",
    "headingGreen": "导航列表"
  },
  "navigationCreatePage": {
    "navigationSetup": "导航建立",
    "pageTitle": "页面标题",
    "navigationPageSetup": "导航名称",
    "noSection": "暂无菜单",
    "noCollection": "暂无系列可显示",
    "navigationSelected": "已成功选择导航",
    "collectionSelected": "已成功选择系列",
    "deleteNavigation": "删除导航",
    "section": {
      "title": "菜单标题",
      "displayOption": "显示选项",
      "showSectionTitle": "显示菜单标题",
      "showImageTitle": "显示图片标题",
      "addCollection": "添加系列",
      "create": "新建菜单",
      "success": "恭喜！您已成功创建该菜单。",
      "name": "请为新的菜单命名",
      "error": "Ooops! 该菜单名已被使用，请重新输入。",
      "validationMsg": "请输入菜单名。",
      "validationMsg2": "请尝试其他的菜单名"
    },
    "subSection": {
      "title": "子菜单名称",
      "add": "新建子菜单",
      "validationMsg": "请输入子菜单名称",
      "validationMsg2": "请尝试其他的子菜单名",
      "create": "新建子菜单",
      "success": "恭喜！您已成功创建该子菜单。",
      "error": "Ooops! 该子菜单名已被使用，请重新输入。",
      "name": "请为新的子菜单命名"
    }
  },
  "homePageListPage": {
    "heading": " 所有主页",
    "add": " 新建页面",
    "pageTypeHome": "主页",
    "pageTypeLanding": "登录页"
  },
  "homePageCreatePage": {
    "mainBanner": {
      "mobile1": " （手机）条幅 1",
      "mobile2": " （手机）条幅 2",
      "mobile3": " （手机）条幅 3",
      "mobile4": " （手机）条幅 4",
      "desktop1": " （电脑）条幅 1",
      "desktop2": "（电脑）条幅 2",
      "desktop3": "（电脑）条幅 3",
      "desktop4": "（电脑）条幅 4"
    },
    "section": {
      "name": "分组名称",
      "imageGridTwo": "图片网格(2x2)",
      "imageGridThree": "图片网格(3x3)",
      "navigationLink": " 导航链接",
      "displayPreview": "效果预览（手机）",
      "label": "标签",
      "productListing": " 产品清单",
      "categoriesListing": " 类别清单"
    },
    "pageSetup": "主页设置",
    "pageName": "主页名称",
    "deletePage": "删除页面"
  },
  "userReviewsListPage": {
    "heading": "用户评价",
    "seeing": "显示的评论"
  },
  "settingsLanguagePage": {
    "heading": "设置",
    "breadcrumbs": "语言选项",
    "sideHead": "语言选项",
    "sideLabel": "选择语言",
    "head": "语言",
    "label": "请选择MIID后台的语言"
  },
  "settingsAccountPage": {
    "heading": "品牌",
    "breadcrumbs": "账号",
    "accountSettings": {
      "head": "账号设置",
      "label": "品牌基本设置",
      "quickAccess": {
        "label": "快速查看",
        "orders": "品牌订单",
        "products": "品牌产品",
        "collections": "品牌系列",
        "promotion": "品牌促销",
        "settings": "品牌设置/快递"
      },
      "brand": "品牌名称",
      "url": "品牌URL",
      "email": "品牌超级管理员邮箱",
      "pass": "品牌超级管理员密码"
    },
    "logo": {
      "head": "品牌logo",
      "label": "上传并管理品牌logo版本",
      "version1": "Logo版本1"
    },
    "service": {
      "label": "设置品牌客服信息",
      "qr": "微信二维码"
    },
    "notifications": {
      "head": "提示",
      "label": "设置系统事件提示",
      "email": "邮件接收通知",
      "more": "更多",
      "optionNo": "不要发出提示",
      "optionYes": "发出提示",
      "order": " 当收到新的付款订单后",
      "brand": "当我的品牌状态发生改变时",
      "product": "当一款新产品改变状态时"
    },
    "contact": {
      "head": "联系方式",
      "label": "MIID能联系到您的方式",
      "name": "公司名称",
      "person": "联系人",
      "phone": "公司电话",
      "email": "公司邮箱",
      "other": "其他联系人",
      "address": "公司地址"
    }
  },
  "settingsShippingPage": {
    "heading": "发货",
    "address": {
      "head": "发货地址",
      "label": "发货地址",
      "form": "发货地址",
      "edit": "修改地址",
      "country": "国家",
      "region": "省份",
      "zip": "邮编"
    },
    "options": {
      "head": "快递服务",
      "label": "提供给顾客的快递选项",
      "label2": "快递选项",
      "edit": "修改选项",
      "option": "快递选项"
    }
  },
  "404errorPage": {
    "heading": "页面错误",
    "msg": "抱歉，页面出错"
  },
  "notify": {
    "info": {
      "infoSaved": {
        "title": "更改成功！",
        "label": "您的更改已成功"
      },
      "infoImageSaved": {
        "title": "图像上传成功",
        "label": "您的图像已上传成功"
      },
      "infoDeleted": {
        "title": "项目已成功删除",
        "label": "您选择的项目已成功删除"
      },
      "infoSaveChanges": {
        "title": "保持更改",
        "label": "请先保存您的更改"
      },
      "infoFilesUploaded": {
        "title": "文件上传成功",
        "label": "您的文件已上传成功"
      },
      "infoPOFiles": {
        "title": "订单文件已重新创建",
        "label": "订单的PDF和EXCEL文件已成功创建"
      },
      "infoNoOrders": {
        "title": "没有更多订单",
        "label": "在此导航类没有更多的订单，请返回订单列表"
      },
      "infoSameItemStatus": {
        "title": "项目已有状态",
        "label": "选定的项已经是这个状态!"
      },
      "infoChangeStatus": {
        "title": "状态修改成功",
        "label": "项目状态已经修改为{{status}}"
      },
      "infoChangeItemsStatus": {
        "title": "状态修改",
        "label": "改变状态 {{noOfCalls}}/{{completedReq}} 为: {{status}}"
      },
      "infoItemsDeleted": {
        "title": "删除项目",
        "label": "删除 {{noOfCalls}}/{{completedReq}} 项目’"
      },
      "infoFilesDeleted": {
        "title": "文件已删除",
        "label": "文件已删除成功"
      },
      "infoResized": {
        "title": "生成子文件",
        "label": "文件生成成功"
      }
    },
    "warnings": {
      "warningInputMissing": {
        "title": "却少输入内容",
        "label": "请完成你的输入."
      }
    },
    "errors": {
      "errorImageMissing": {
        "title": "图片文件缺失",
        "label": "请选择一张图片."
      },
      "errorSaving": {
        "title": "出错",
        "label": "请稍后重试."
      },
      "errorOperation": {
        "title": "未能完成操作",
        "label": "操作未能完成"
      },
      "errorSlugSaving": {
        "title": "对象已存在",
        "label": "此slug对象已存在"
      },
      "errorObjectExist": {
        "title": "对象已存在",
        "label": "此名称的对象已存在"
      },
      "errorDirectorySelection": {
        "label": "请选择一个库来操作",
        "title": "为选中任何库"
      },
      "errorItemStatus": {
        "label": "改变项目状态时出错",
        "title": "改变状态时出错"
      },
      "errorPOFiles": {
        "label": "生成PO文件时出错，请重试",
        "title": "重新生成PO文件时出错"
      },
      "errorPercentageValue": {
        "title": "比例值出错",
        "label": "比例应该在0和100之间."
      },
      "errorItemSelection": {
        "title": "项目未选中",
        "label": "请至少选择 {{count}}项目",
        "label2": "请选择一个项目"
      },
      "errorCodeExist": {
        "title": "代码已存在",
        "label": "您提供的代码已存在，请常识生成或提供新的代码。"
      },
      "errorSavingOrder": {
        "label": "保存新项目订单时出错，请重试."
      },
      "onlyZipAllowed": {
        "title": "文件类型不可用",
        "label": "仅支持ZIP文件"
      },
      "errorResizing": {
        "title": "调整大小出错",
        "label": "调整文件包大小出错"
      }
    }
  },
  "alert": {
    "buttons": {
      "reload": "重新载入",
      "confirm": "确认",
      "try": "请重试",
      "retry": "重试",
      "ok": "OK",
      "yes": "请删除",
      "proceed": "操作中"
    },
    "label": "您确定吗?",
    "confirm": {
      "title": "出错.",
      "label": "我们未能从服务器中得到数据，你可以重新加载或继续."
    },
    "confirmWarning": {
      "label": "这将会永久的删除所选中项目"
    },
    "confirmItemStatus": {
      "label": "这将会改变所选项目的状态改变为 {{status}}"
    },
    "confirmGroupWarning": {
      "label": "这将会永久的删除所选中项目"
    },
    "errorDataSaving": {
      "title": "我们未能保存您的更改.",
      "label": "保存更改时发生错误"
    },
    "errorDeleting": {
      "title": "删除失败",
      "label": "删除时出错，请按'重试''或点击'取消"
    },
    "confirmDeleting": {
      "title": "您确定要删除这个吗?",
      "label": "请按 'OK' 来删除或’取消’来继续操作."
    },
    "successRemove": {
      "title": "项目成功删除",
      "label": "所选项目已经从数据库中永久删除"
    },
    "confirmUnsavedChanges": {
      "title": "您有未保存的更改",
      "label": "这将会取消您左的更改，您可能要先保存更改。"
    }
  },
  "galleriesListPage": {
    "button": "创建新画廊",
    "heading": "画廊列表",
    "msg": "您正在查看画廊",
    "all": "所有的艺术设计",
    "deleteMsg": "这将会删除画廊内的所有艺术设计，您确定要删除这些画廊吗？",
    "confirmDelete": "确定删除"
  },
  "artworksListPage": {
    "button": "上传艺术设计",
    "heading": "艺术设计列表",
    "msg": "您正在查看画廊",
    "deleteMsg": "这将会删除画廊内的所有艺术设计，您确定要删除这些艺术设计吗？"
  },
  "ordersExport": {
    "button": "导出",
    "heading": "订单倒出",
    "label1": "选择要下载的订单",
    "label2": "选择语言",
    "label3": "选择语言",
    "label4": "选择订单模板",
    "label5": "创建新的模板",
    "label6": "把订单分成不同文件",
    "label7": "附加参考图片",
    "label8": "载入模板",
    "option1": "已选择订单",
    "option2": "订单按日期",
    "option3": "所有订单",
    "option4": "目前搜索结果",
    "option5": "按品牌区分",
    "option6": "按厂家区分",
    "option7": "按当个订单区分",
    "option8": "以PDF格式",
    "option9": "以单个JPEG文件",
    "template": {
      "heading": "创建订单模板",
      "name": "模板名称",
      "placeholder": "*新模板",
      "label": "增加模板内容",
      "button": "保存模板"
    }
  },
  "copyright": "版权"
}
